W	0.225	1.009	0.296
P	0.126	1.004	0.502	0.322
T	0.118	0.991	0.591
W	0.233	0.988	0.303
P	0.113	1.000	0.497	0.281
T	0.126	1.014	0.592
W	0.220	1.010	0.297
W	0.225	0.999	0.301
T	0.118	0.994	0.578
P	0.124	1.008	0.498	0.298
W	0.225	0.995	0.298
T	0.124	0.999	0.596
W	0.226	1.003	0.298
P	0.115	1.018	0.475	0.305
W	0.225	0.990	0.300
T	0.150	1.010	0.638
P	0.117	0.998	0.504	0.290
W	0.228	1.009	0.302
T	0.118	1.008	0.577
P	0.120	1.021	0.497	0.292
T	0.124	0.997	0.590
P	0.125	0.997	0.503	0.308
P	0.115	0.992	0.503	0.291
P	0.120	0.991	0.504	0.294
T	0.140	1.004	0.628
P	0.123	1.009	0.508	0.310
T	0.112	0.999	0.570
T	0.115	0.996	0.577
W	0.231	1.006	0.295
W	0.245	1.010	0.299
T	0.118	0.997	0.580
P	0.121	1.005	0.499	0.307
T	0.128	0.993	0.610
W	0.228	0.999	0.297
P	0.120	0.996	0.497	0.297
P	0.111	1.001	0.477	0.306
W	0.242	1.011	0.307
T	0.123	1.007	0.597
T	0.137	0.982	0.616
W	0.224	0.999	0.302
W	0.223	1.019	0.300
P	0.114	1.001	0.504	0.283
P	0.130	1.007	0.501	0.303
T	0.128	1.000	0.599
W	0.228	1.010	0.304
P	0.111	0.988	0.497	0.296
P	0.115	0.998	0.496	0.295
T	0.133	1.023	0.616
T	0.136	0.993	0.619
P	0.127	1.017	0.512	0.305
T	0.120	1.003	0.580
P	0.122	0.988	0.503	0.315
T	0.122	0.994	0.594
W	0.228	0.999	0.298
P	0.126	1.002	0.495	0.313
T	0.113	0.995	0.573
T	0.126	1.012	0.585
W	0.232	1.000	0.300
W	0.231	1.017	0.300
P	0.120	1.007	0.487	0.293
T	0.117	0.993	0.584
T	0.128	1.007	0.601
T	0.131	0.986	0.618
T	0.143	1.004	0.636
P	0.115	0.997	0.500	0.298
P	0.113	0.995	0.497	0.290
T	0.127	0.973	0.631
W	0.219	1.000	0.300
P	0.125	1.018	0.510	0.301
P	0.124	0.991	0.495	0.299
T	0.117	0.996	0.574
P	0.120	1.004	0.493	0.298
P	0.119	1.011	0.506	0.292
W	0.219	1.002	0.293
T	0.114	0.999	0.571
T	0.117	1.000	0.587
W	0.227	1.003	0.301
P	0.121	1.001	0.498	0.311
W	0.229	0.989	0.305
W	0.233	1.023	0.301
P	0.121	1.005	0.493	0.314
P	0.108	0.995	0.487	0.295
W	0.224	1.001	0.296
W	0.219	0.984	0.297
P	0.124	1.004	0.492	0.313
T	0.133	1.019	0.615
P	0.123	1.007	0.518	0.297
W	0.222	0.987	0.299
T	0.121	0.995	0.590
W	0.232	0.997	0.301
W	0.215	1.008	0.295
P	0.116	1.015	0.487	0.301
T	0.142	1.011	0.636
P	0.125	0.994	0.506	0.304
P	0.113	1.000	0.496	0.284
T	0.108	1.007	0.563
T	0.129	1.001	0.614
T	0.112	1.007	0.568
W	0.231	0.997	0.301
W	0.220	1.004	0.298
T	0.131	1.005	0.605
W	0.236	1.002	0.298
P	0.124	1.001	0.506	0.314
P	0.113	0.991	0.504	0.286
T	0.138	1.011	0.628
T	0.126	1.007	0.600
P	0.115	1.016	0.482	0.293
T	0.135	0.986	0.623
T	0.132	0.988	0.616
W	0.221	0.990	0.302
P	0.118	1.000	0.496	0.289
T	0.156	1.010	0.659
T	0.131	0.997	0.627
P	0.120	0.990	0.500	0.298
T	0.138	1.014	0.622
T	0.115	0.988	0.576
T	0.117	0.995	0.590
P	0.123	1.010	0.501	0.310
W	0.232	1.017	0.294
W	0.221	1.003	0.301
W	0.233	1.007	0.301
P	0.113	0.990	0.485	0.300
P	0.117	1.012	0.495	0.302
P	0.128	0.999	0.522	0.309
W	0.229	1.004	0.304
T	0.118	0.995	0.576
W	0.234	1.024	0.300
T	0.143	0.980	0.647
T	0.121	1.003	0.581
P	0.119	0.997	0.482	0.309
W	0.235	1.004	0.307
W	0.222	1.006	0.296
T	0.122	1.005	0.601
T	0.124	1.000	0.603
W	0.232	1.016	0.302
W	0.239	1.005	0.299
T	0.116	0.996	0.575
P	0.121	1.003	0.507	0.297
T	0.132	1.013	0.618
P	0.126	1.009	0.520	0.308
W	0.208	0.990	0.295
P	0.123	1.001	0.491	0.315
T	0.124	1.001	0.601
W	0.232	1.007	0.302
T	0.127	1.001	0.608
T	0.129	1.001	0.612
P	0.111	1.019	0.492	0.280
W	0.228	1.010	0.300
P	0.116	0.994	0.492	0.297
P	0.118	0.986	0.490	0.292
T	0.116	1.013	0.585
T	0.103	1.009	0.562
W	0.231	0.999	0.302
P	0.133	1.006	0.499	0.307
T	0.145	0.988	0.647
P	0.115	0.996	0.482	0.294
W	0.225	1.005	0.304
W	0.246	1.013	0.305
W	0.218	0.996	0.298
T	0.115	0.992	0.569
P	0.133	1.004	0.522	0.319
T	0.126	1.011	0.607
P	0.127	0.990	0.515	0.307
T	0.118	1.003	0.585
W	0.228	0.998	0.304
P	0.122	1.002	0.507	0.306
W	0.236	1.004	0.301
W	0.240	1.003	0.304
P	0.123	0.987	0.515	0.299
T	0.118	0.984	0.577
W	0.226	0.991	0.298
P	0.124	0.997	0.511	0.296
W	0.210	0.998	0.294
W	0.227	1.001	0.300
T	0.134	1.004	0.612
P	0.120	0.986	0.512	0.295
P	0.121	1.000	0.517	0.296
T	0.127	1.000	0.622
P	0.125	1.005	0.522	0.291
T	0.130	1.014	0.602
T	0.121	1.018	0.594
T	0.122	1.004	0.578
T	0.124	1.007	0.599
W	0.228	1.009	0.300
T	0.125	1.012	0.605
T	0.140	1.000	0.631
T	0.130	0.991	0.619
T	0.138	0.993	0.631
T	0.123	0.987	0.608
W	0.218	1.005	0.303
P	0.119	1.003	0.496	0.302
P	0.123	0.994	0.514	0.307
W	0.224	0.999	0.301
W	0.227	1.023	0.301
W	0.234	0.999	0.301
T	0.107	0.999	0.559
T	0.122	0.992	0.598
T	0.116	0.990	0.581
T	0.119	0.989	0.588
W	0.231	0.987	0.305
T	0.112	0.987	0.569
W	0.214	0.991	0.297
T	0.117	1.004	0.576
W	0.227	1.003	0.299
P	0.122	1.000	0.507	0.303
T	0.132	1.005	0.610
W	0.225	1.001	0.300
W	0.216	1.011	0.298
T	0.129	0.994	0.608
W	0.210	0.985	0.301
P	0.119	1.001	0.499	0.305
P	0.122	1.003	0.507	0.294
T	0.126	1.009	0.586
W	0.229	0.987	0.303
T	0.130	0.995	0.612
T	0.126	1.015	0.594
W	0.241	1.004	0.306
T	0.123	0.992	0.596
W	0.217	0.989	0.298
W	0.223	0.990	0.297
T	0.143	1.010	0.624
T	0.123	1.001	0.589
W	0.222	1.005	0.297
P	0.122	1.013	0.490	0.301
T	0.125	0.998	0.587
W	0.229	0.993	0.301
T	0.113	1.007	0.566
T	0.122	1.006	0.597
T	0.129	0.989	0.612
W	0.229	0.990	0.299
W	0.224	1.008	0.300
P	0.130	1.001	0.515	0.303
P	0.113	1.003	0.482	0.298
T	0.134	0.994	0.622
P	0.119	0.994	0.493	0.291
W	0.219	1.010	0.293
W	0.228	1.012	0.303
T	0.117	1.006	0.587
W	0.228	1.010	0.300
T	0.130	1.016	0.610
W	0.230	0.996	0.302
P	0.119	1.007	0.494	0.295
W	0.225	1.012	0.302
T	0.106	0.982	0.555
W	0.223	0.986	0.298
W	0.227	0.993	0.300
P	0.126	1.008	0.505	0.308
W	0.226	0.994	0.297
P	0.119	1.009	0.503	0.306
W	0.223	1.008	0.296
P	0.113	0.997	0.494	0.286
P	0.123	1.009	0.505	0.296
W	0.229	0.980	0.298
P	0.133	0.998	0.507	0.316
T	0.122	0.997	0.589
P	0.112	1.002	0.499	0.287
P	0.117	1.000	0.485	0.295
T	0.118	1.006	0.578
P	0.121	0.998	0.502	0.296
W	0.227	1.012	0.303
W	0.222	1.003	0.301
T	0.129	1.004	0.610
P	0.110	0.988	0.490	0.288
W	0.220	1.005	0.296
W	0.227	1.003	0.296
W	0.228	1.002	0.300
T	0.126	1.006	0.605
T	0.118	0.992	0.583
P	0.126	1.006	0.498	0.313
T	0.127	1.016	0.598
T	0.148	1.008	0.634
T	0.116	0.998	0.584
P	0.116	1.020	0.485	0.285
P	0.116	0.998	0.493	0.293
W	0.225	0.999	0.302
P	0.118	1.012	0.499	0.295
W	0.230	1.005	0.299
T	0.121	1.003	0.592
P	0.129	1.000	0.507	0.304
T	0.105	0.978	0.562
W	0.233	0.998	0.298
P	0.121	0.997	0.501	0.292
P	0.112	0.981	0.492	0.300
P	0.124	1.020	0.507	0.299
W	0.232	1.007	0.301
P	0.122	1.001	0.513	0.295
W	0.243	1.006	0.307
W	0.234	1.033	0.305
W	0.222	1.011	0.293
P	0.120	1.008	0.491	0.293
W	0.239	1.022	0.306
T	0.132	1.014	0.615
T	0.125	1.006	0.599
W	0.238	0.995	0.302
P	0.118	0.986	0.498	0.295
W	0.218	0.995	0.296
W	0.233	1.020	0.300
P	0.131	1.010	0.507	0.319
W	0.222	0.988	0.301
W	0.227	0.989	0.301
P	0.110	0.998	0.480	0.289
P	0.113	0.990	0.491	0.286
T	0.124	1.004	0.601
T	0.115	0.991	0.583
P	0.123	1.003	0.488	0.310
T	0.130	0.995	0.615
T	0.127	1.020	0.599
P	0.114	0.991	0.501	0.295
T	0.124	0.996	0.605
P	0.123	1.004	0.511	0.299
W	0.221	1.001	0.299
W	0.225	0.996	0.299
T	0.122	1.003	0.584
W	0.234	0.994	0.300
W	0.236	1.018	0.298
T	0.119	1.017	0.583
P	0.112	0.996	0.501	0.288
W	0.223	0.992	0.297
P	0.116	0.993	0.508	0.283
W	0.224	0.984	0.302
T	0.105	0.990	0.564
W	0.234	1.013	0.300
P	0.132	1.007	0.503	0.318
W	0.223	1.018	0.298
P	0.115	1.010	0.504	0.286
P	0.130	1.014	0.515	0.305
W	0.228	1.006	0.300
W	0.221	1.005	0.299
W	0.228	0.996	0.303
W	0.212	0.989	0.297
T	0.128	0.981	0.612
T	0.126	1.014	0.594
P	0.104	1.000	0.474	0.279
P	0.119	0.987	0.488	0.308
P	0.122	1.006	0.509	0.296
T	0.129	0.992	0.607
P	0.114	1.012	0.493	0.302
P	0.117	0.997	0.491	0.300
T	0.118	1.007	0.581
T	0.122	1.002	0.593
T	0.138	0.995	0.646
P	0.111	1.008	0.490	0.295
T	0.123	1.009	0.593
T	0.120	0.997	0.599
T	0.124	1.007	0.589
T	0.129	1.016	0.610
T	0.118	0.988	0.584
W	0.225	1.006	0.300
T	0.132	0.987	0.616
T	0.114	0.985	0.583
T	0.114	0.993	0.569
T	0.122	1.004	0.596
T	0.116	1.017	0.577
T	0.116	0.985	0.590
T	0.129	0.990	0.608
W	0.235	0.989	0.303
P	0.121	0.989	0.505	0.313
T	0.118	0.997	0.596
T	0.121	0.993	0.584
W	0.227	1.002	0.300
T	0.145	0.994	0.640
W	0.230	1.004	0.300
